<svg xmlns="http://www.w3.org/2000/svg" viewBox="0 0 64 64">
 <defs>
  <radialGradient id="radialGradient3964-9" cx="32.5" cy="56.5" r="33.5" gradientTransform="matrix(1.1343284,0,0,0.11940298,45.134328,1064.6159)" gradientUnits="userSpaceOnUse">
   <stop style="stop-color:#000;stop-opacity:1"/>
   <stop offset="1" style="stop-color:#000;stop-opacity:0"/>
  </radialGradient>
 </defs>
 <g transform="translate(0,-988.3622)">
  <g transform="translate(-50,-24.999983)">
   <rect rx="2" y="1013.36" x="57" height="38" width="50" style="fill:#eae7d1;fill-opacity:1;stroke:none"/>
   <ellipse cx="82" cy="1071.36" rx="38" ry="4" style="fill:url(#radialGradient3964-9);opacity:0.6;fill-opacity:1;stroke:none"/>
   <rect y="1036.36" x="62" height="2" width="40" style="fill:#7a7a68;fill-opacity:1;stroke:none"/>
   <path d="m 114 1038.54 0 34.823 -64 0 0 -32 30 0 3 -6 27.952 0.118 c 1.524 0 3.048 1.53 3.048 3.059 z" style="fill:#444444;fill-opacity:1;stroke:none"/>
   <path d="m 50 1071.36 0 2 64 0 0 -2 z" style="fill:#000;opacity:0.15;fill-opacity:1;stroke:none"/>
   <path d="m 83 1035.36 -3 6 -30 0 0 2 31 0 3 -6 26.938 0.125 c 1.524 0 3.063 1.533 3.063 3.063 l 0 -2 c 0 0 -1.539 -3.063 -3.063 -3.063 z" style="fill:#000;opacity:0.03;fill-opacity:1;stroke:none"/>
   <rect width="40" height="2" x="62" y="1031.36" style="fill:#7a7a68;fill-opacity:1;stroke:none"/>
   <rect y="1016.36" x="62" height="2" width="40" style="fill:#7a7a68;fill-opacity:1;stroke:none"/>
   <rect width="40" height="2" x="62" y="1021.36" style="fill:#7a7a68;fill-opacity:1;stroke:none"/>
   <rect y="1026.36" x="62" height="2" width="40" style="fill:#7a7a68;fill-opacity:1;stroke:none"/>
  </g>
  <path d="m 59.998 1028.36 c 0.088 4.257 -2.18 8.23 -5.927 10.386 -3.75 2.153 -8.394 2.153 -12.141 0 -3.747 -2.156 -6.01 -6.129 -5.927 -10.386 -0.088 -4.257 2.18 -8.23 5.927 -10.383 3.747 -2.156 8.391 -2.156 12.141 0 3.747 2.153 6.01 6.126 5.927 10.383 z" style="fill:#4caf50;fill-opacity:1;fill-rule:evenodd"/>
  <path d="m 54.56 1020.82 c -0.255 0.091 -0.469 0.261 -0.615 0.486 l -6.539 6.331 -4.081 -3.897 c -0.164 -0.542 -0.677 -0.899 -1.245 -0.87 -0.568 0.029 -1.043 0.442 -1.146 0.999 -0.1 0.554 0.196 1.105 0.718 1.33 l 4.916 4.872 c 0.472 0.431 1.201 0.431 1.673 0 l 7.377 -7.307 c 0.287 -0.378 0.328 -0.891 0.1 -1.307 -0.229 -0.419 -0.68 -0.668 -1.157 -0.639 z" style="fill:#fff"/>
 </g>
</svg>
